cobot\_python\_sdk package
==========================

Submodules
----------

cobot\_python\_sdk\.alexa\_request\_handler module
--------------------------------------------------

.. automodule:: cobot_python_sdk.alexa_request_handler
    :members:
    :undoc-members:
    :show-inheritance:

cobot\_python\_sdk\.alexa\_response\_builder module
---------------------------------------------------

.. automodule:: cobot_python_sdk.alexa_response_builder
    :members:
    :undoc-members:
    :show-inheritance:

cobot\_python\_sdk\.analyzer module
-----------------------------------

.. automodule:: cobot_python_sdk.analyzer
    :members:
    :undoc-members:
    :show-inheritance:

cobot\_python\_sdk\.base\_dependency\_type module
-------------------------------------------------

.. automodule:: cobot_python_sdk.base_dependency_type
    :members:
    :undoc-members:
    :show-inheritance:

cobot\_python\_sdk\.base\_handler module
----------------------------------------

.. automodule:: cobot_python_sdk.base_handler
    :members:
    :undoc-members:
    :show-inheritance:

cobot\_python\_sdk\.dynamodb\_manager module
--------------------------------------------

.. automodule:: cobot_python_sdk.dynamodb_manager
    :members:
    :undoc-members:
    :show-inheritance:

cobot\_python\_sdk\.event module
--------------------------------

.. automodule:: cobot_python_sdk.event
    :members:
    :undoc-members:
    :show-inheritance:

cobot\_python\_sdk\.intent\_mapper module
-----------------------------------------

.. automodule:: cobot_python_sdk.intent_mapper
    :members:
    :undoc-members:
    :show-inheritance:

cobot\_python\_sdk\.path\_dict module
-------------------------------------

.. automodule:: cobot_python_sdk.path_dict
    :members:
    :undoc-members:
    :show-inheritance:

cobot\_python\_sdk\.user\_attributes module
-------------------------------------------

.. automodule:: cobot_python_sdk.user_attributes
    :members:
    :undoc-members:
    :show-inheritance:

cobot\_python\_sdk\.user\_attributes\_manager module
----------------------------------------------------

.. automodule:: cobot_python_sdk.user_attributes_manager
    :members:
    :undoc-members:
    :show-inheritance:


Module contents
---------------

.. automodule:: cobot_python_sdk
    :members:
    :undoc-members:
    :show-inheritance:
