{
  "host": "06421kpunk.execute-api.us-east-1.amazonaws.com",
  "basePath": "/prod",
  "paths": {
    "/qa/v1/answer": {
      "post": {
        "interface": "get_answer",
        "parameters": [
          {
            "in": "body",
            "name": "QAV1Answer",
            "required": true,
            "schema": {
              "$ref": "#/definitions/QAV1Answer"
            }
          }
        ],
        "responses": {
          "200": {
            "description": "200 response",
            "schema": {
              "$ref": "#/definitions/Empty"
            }
          }
        }
      }
    }
  },
  "definitions": {
    "QAV1Answer": {
      "type": "object",
      "required": [
        "question"
      ],
      "properties": {
        "question": {
          "$ref": "Text"
        }
      }
    },
    "Text": {
      "type": "string",
      "minLength": 1
    }
  }
}