{
  "host": "nfn0bj86xi.execute-api.us-east-1.amazonaws.com",
  "basePath": "/prod",
  "paths": {
    "/sentiment/v1/batchSentimentClasses": {
      "post": {
        "interface": "batch_detect_sentiment",
        "parameters": [
          {
            "in": "body",
            "name": "SentimentV1BatchSentimentClasses",
            "required": true,
            "schema": {
              "$ref": "#/definitions/SentimentV1BatchSentimentClasses"
            }
          }
        ],
        "responses": {
          "200": {
            "description": "200 response",
            "schema": {
              "$ref": "#/definitions/Empty"
            }
          }
        }
      }
    }
  },
  "definitions": {
    "SentimentV1BatchSentimentClasses": {
      "type": "object",
      "required": [
        "utterances"
      ],
      "properties": {
        "utterances": {
          "$ref": "TextList"
        }
      }
    },
    "TextList": {
      "type": "array",
      "minLength": 1,
      "items": {
        "$ref": "Text"
      }
    },
    "Text": {
      "type": "string",
      "minLength": 1
    }
  }
}