conversation_id,conversation_start_time,rating,feedback
7af3ff09b3080767bea897ec9438a88662c45f4cdf5ec1693e5800da47595025,2018-04-27 20:25:55,1.0,it didn't actually answer any questions and just kept going in loops asking the same questions
59fe30d10b4ebe1dc190c9de21b4cff8c6b83375dbf983e54c015c575d84b4b0,2018-04-27 22:55:12,3.0,uhhh the joke was funny there was some basic ummm  mistakes with words like saying met instead of meet so watch out for that ummm it's kind of jumbled didn't seem to be very coherent uhhh i don't if it's just scooping up random conversations are all machine learning but maybe try adding some manual stuff and  ummm reply to commonly asked phrases
5cf4cb651fca61da461f782c45ce018695dd0a9def9d98baec267a85696408c9,2018-04-28 03:50:15,,but i love that you guys made alexa  she's super helpful 
08ddd46ff6cc664f0be62aea18734d35883ff1020809d9d1c435af312765827c,2018-04-28 23:53:03,1.0,that was horrible you just told me you couldn't talk about anything i asked to talk about
10217f6d6b02c74be649835e25b49feae9bb59d00281ab78adfe7c273262c8cd,2018-04-29 16:07:04,1.0,it was very confusing it didn't seem to understand me at all
aafac1040b8fc5dc93da10ee5df87af8299606ee35631a1f883de65f9549c36b,2018-04-29 16:18:05,1.0,your bot is completely broken every topic that it says it has some news about it fails to deliver any news
ded52ff7cc6fd73805bd25819b2b0e6bae1914def1a356472924a00cfb58f683,2018-04-29 17:37:12,2.0,you offered to talk about books but failed completely to talk about books you tried to randomly switch topics on me once or twice i liked the movie dialog but way too much information at one time and then you got lost very simply within that movie dialog
225941bef16a5c540ad8fef0b3db086683679232ab401c610f35ed975b1ff311,2018-04-30 01:19:09,1.0,ummm the topic that i brought up alexa  had no idea what i was talking about
74ce6dd7dbd27122aba7ad89157d6b7f5414449492e1b11544ca9bba64aa1c61,2018-04-30 02:59:56,, you're saying thanks for me telling you about zero stars you jerk 
b84242f28d9f4eca305017bad6d7186e7f03a7972f33d8b64926ec22661aaec8,2018-05-01 03:44:42,1.0, said as if i wanted to chat about star wars then i said no and she did not know how to proceed or suggest other movies
8a74cae18d8eb3a386e81ae37a0bb4ca995265eb036ef507da6508dc57ecd57c,2018-05-01 14:20:35,4.0,yeah this experience was little creepy ummm  the responses i love you and i'm not very smart it was like talking to a really bad ex
a11e593c1dd556458966f76ffed516d1f5de573203e0194a1b7bd34a0a0d7fdf,2018-05-01 14:45:17,1.0,yes i keep getting the same questions over and over again i was asked if i was a dog or a cat person multiple times i was asked if i like to talk about music or  books or music or something and i would say yes and it went kept just coming back to let's talk about something else let's talk about something else ummm very repetitive not very coherent
3f9000ab01f4e1aa79ded3739597b92b1e562dc8a190e45a7cbdd281eae6125e,2018-05-01 15:41:11,1.0,if you say you could talk about movies then talk about the recent movie i i want to start whatever
549cc82b18b5503387b9ca1e3f47c8aecfdbc642b1611fe4855d3880c1f36fa9,2018-05-02 02:53:34,1.0,we said sports multiple times and alexa  did not respond at all
fece22f6d457380174d9bf9becd06cd1d01ad0da4524ef6926f64e1f2cb4fa77,2018-05-02 14:49:07,1.5,if you ask me whether i want news or fun fact about a topic and i say news or yes i'd like news then give me news about that topic
778e50b16589c3d685981661348cf580a8190dd4b684d32ee89b02260e9e3f37,2018-05-02 15:21:13,1.0,you're unable to respond to a single thing that i said
