conversation_id,conversation_start_time,rating,feedback
f57d75cdf144f9186f4aa1bd187a2a563c7d2006e806107b45fc259d7fd15929,2018-05-05 22:32:02,2.0,it did not feel conversational and she didn't understand what we were saying
15066dfbf15aa63aae8f35fc8526be120681b1af004aa376e7d66d6d6b5dcee7,2018-05-11 15:05:23,1.0,why does it keep saying it loves me
a540f42fc2fde2da0b8822bca3f25a6300dec8576214602a9b61a09ae3299b8d,2018-05-11 16:06:46,2.5,yeah ummm she was pretty good i think she has threw me off with a couple of things one of them was when i said to her talk about relationships
4eac4a10cc9e44eae8b71e77db22a7f3d2febdadf39cc5062674631d12b29d4c,2018-05-11 17:53:50,,i i i think it lagged some ability to understand some of the conversation but the personal human level of this social bot is better than others that i've seen
81e3df59fb59674e1e05cb9fc7159a66325acf69446333ed16868683e73a4b5f,2018-05-11 19:14:56,3.0,this one was more entertaining than most i like the fact that it actually asked me my name although it never used it very much after a couple of times and unless i stuck to what it knew and wanted to talk about we weren't having a conversation so that's not really a conversation that's just the computer trying to make me ask it facts it already knows keep trying
369cb81000ad4feadffca251abe70d4ec62f16ce62109246e87b161a27788cc9,2018-05-12 00:35:50,1.0,the chat bot could not understand what i was saying and became insulting
1b4b614106a256e3a7f2b8649b76bf919660d5d0eb3534fdfbcd60c1f5ea1829,2018-05-12 00:56:58,1.0,you cannot keep saying the same thing over and over and over and over again
a47bd4d914924a7d297ef921ef307f21a19fc13b77284e67c34a7d2d8df2d1cc,2018-05-12 16:12:46,2.0,it was really bad and alexa  was kind of glitching
e345e03c1f465df7cfc639d1d86429442b9ba8cb1c0b0f7b76df664757e2a8d2,2018-05-12 16:46:33,1.0,yeah couldn't get pass the first question she kept repeating it
341b4ff74808d0c33ec1ea8396b20f100ab8536307d1319ef0da910231ae29ea,2018-05-13 07:25:16,,it was really really freaking bad
b55fd9611c1be1f38a10d9d6676b700288997502999c1cbc4cc32db7fa734ff5,2018-05-13 15:20:13,1.0,yes i wanted to talk about dancing not n. sync
4ddb018c94d2e29b14d3ecc1be0e0886e08699005e4c4108f01b1993d30a50ef,2018-05-13 20:00:07,5.0,i liked the conversation with this bot uhhh there was comedy that i wasn't quite expecting and it was really refreshing
aaa68c1778006dca7cfde4fbcf9a174d3c70c8d3da3edf0f96afff6755acf68f,2018-05-13 22:12:36,2.0,it's not a good idea to have it ask for somebody's name if you aren't one hundred percent confident that it's going to correctly say their name back to them it failed in my case
513e841d9a163bb3b6cecbf5b32053b5bb220ddb0640674627fae18d53382e1e,2018-05-15 11:41:46,1.0,ahhh it's asking my name i said bob and then that was the end and then it was asking me to vote [laugh]
1ed033ac25b8b21324533d3e94376a155c32b5d446b865efcb7fc1084542f4d6,2018-05-15 16:10:08,1.0,uhhh the name capture is all messed up it can't understand my name it calls me john what's your name ummm and the bot crashed uhhh before the conversation really got started
