{
  "features": [
    "intent_greet", 
    "intent_goodbye", 
    "intent_mood_affirm", 
    "intent_mood_deny", 
    "intent_mood_great", 
    "intent_mood_unhappy", 
    "intent_topic_request", 
    "intent_opinion_request", 
    "intent_more_info_request", 
    "intent_frustration", 
    "intent_no_intent", 
    "intent_yes_intent", 
    "intent_error", 
    "intent_love", 
    "intent_hate", 
    "entity_topic", 
    "slot_topic_0", 
    "prev_action_listen", 
    "prev_action_restart", 
    "prev_utter_greet", 
    "prev_utter_cheer_up", 
    "prev_utter_did_that_help", 
    "prev_utter_happy", 
    "prev_utter_goodbye", 
    "prev_utter_new_topic", 
    "prev_utter_more_info", 
    "prev_utter_opinion", 
    "prev_utter_frustration", 
    "prev_utter_error"
  ]
}