{
  "host": "bnd8xjhonk.execute-api.us-east-1.amazonaws.com",
  "basePath": "/prod",
  "paths": {
    "/offensiveness/v1/batchOffensivenessClasses": {
      "post": {
        "interface": "batch_detect_profanity",
        "parameters": [
          {
            "in": "body",
            "name": "ProfanityV1BatchProfanityClasses",
            "required": true,
            "schema": {
              "$ref": "#/definitions/ProfanityV1BatchProfanityClasses"
            }
          }
        ],
        "responses": {
          "200": {
            "description": "200 response",
            "schema": {
              "$ref": "#/definitions/Empty"
            }
          }
        }
      }
    }
  },
  "definitions": {
    "ProfanityV1BatchProfanityClasses": {
      "type": "object",
      "required": [
        "utterances"
      ],
      "properties": {
        "utterances": {
          "$ref": "TextList"
        },
        "minConfidence": {
          "$ref": "ConfidenceValue"
        }
      }
    },
    "TextList": {
      "type": "array",
      "minLength": 1,
      "items": {
        "$ref": "Text"
      }
    },
    "Text": {
      "type": "string",
      "minLength": 1
    },
    "ConfidenceValue": {
      "type": "float",
      "minLength": 0,
      "maxLength": 1
    }
  }
}